…
<img src="{{< blogdown/postref >}}index_files/figure-html/unnamed-chunk-16-1.png" width="672" />

Caso eu quisesse fazer ainda mais ajustes na curva, eu poderia usar o output parcial do código, que gera a tabela utilizada para fazer o plot, que contém os valores de especificidade e sensibilidade:


```r
augment(heart_resamples_preds) %>%
  roc_curve(TenYearCHD, .pred_0)
```

```
## # A tibble: 2,926 x 3
##    .threshold specificity sensitivity
##         <dbl>       <dbl>       <dbl>
##  1 -Inf           0             1    
##  2    2.29e-7     0             1    
##  3    3.31e-7     0.00227       1    
##  4    3.70e-7     0.00455       1    
##  5    3.72e-7     0.00455       1.00 
##  6    8.25e-7     0.00455       0.999
##  7    3.23e-2     0.00455       0.999
##  8    4.22e-2     0.00682       0.999
##  9    4.88e-2     0.00909       0.999
## 10    5.79e-2     0.0114        0.999
## # ... with 2,916 more rows
```
…
